{
    "page": 1,
    "total_results": 197,
    "total_pages": 10,
    "results": [
      {
        "original_name": "ハイキュー!!",
        "genre_ids": [
          16,
          35,
          18
        ],
        "name": "Haikyu!!",
        "popularity": 50.567,
        "origin_country": [
          "JP"
        ],
        "vote_count": 41,
        "first_air_date": "2014-04-06",
        "backdrop_path": "/eRstp0xZ2xaHkl6gxfuRfOKUhPz.jpg",
        "original_language": "ja",
        "id": 60863,
        "vote_average": 8.2,
        "overview": "Shōyō Hinata began playing volleyball after seeing the \"small giants\" who played the sport when he was in elementary school. He suffers a crushing defeat in his first and last tournament in middle school at the hands of his rival Tobio Kageyama. So, Hinata joins Kurasuno High School's volleyball team, vowing revenge against Kageyama. However, Kageyama is also on Kurasuno's team. The former rivals form a legendary combo with Hinata's mobility and Kageyama's precision ball-handling. Together, they take on the local tournaments and vow to meet Kurasuno's fated rival school in the nationals.",
        "poster_path": "/aXhi0b2MZWHekY402PyNjrj3LnR.jpg"
      },
      {
        "original_name": "モブサイコ100",
        "genre_ids": [
          16,
          35,
          10759
        ],
        "name": "Mob Psycho 100",
        "popularity": 38.139,
        "origin_country": [
          "JP"
        ],
        "vote_count": 86,
        "first_air_date": "2016-07-12",
        "backdrop_path": "/kP5duNJEbTfXpBs6CITsaZ88pQi.jpg",
        "original_language": "ja",
        "id": 67075,
        "vote_average": 7.9,
        "overview": "Shigeo Kageyama, a.k.a. \"Mob,\" is a boy who has trouble expressing himself, but who happens to be a powerful esper. Mob is determined to live a normal life and keeps his ESP suppressed, but when his emotions surge to a level of 100%, something terrible happens to him! As he's surrounded by false espers, evil spirits, and mysterious organizations, what will Mob think? What choices will he make?",
        "poster_path": "/5Wf9Y6gucbu1LMe1FyqD8TQjaNM.jpg"
      },
      {
        "original_name": "とらドラ！",
        "id": 42916,
        "name": "Toradora!",
        "popularity": 30.268,
        "vote_count": 45,
        "vote_average": 7.5,
        "first_air_date": "2008-10-02",
        "poster_path": "/tj0hWw52OXW7RZGzhuFfqdpLk0N.jpg",
        "genre_ids": [
          16,
          35,
          18
        ],
        "original_language": "ja",
        "backdrop_path": "/ezexhcsiR85ozwfRQv409bypDrj.jpg",
        "overview": "It’s Ryuji’s first day as a junior in high school and it seems as if things are looking up. He gets to sit in between his only friend, Yusaku, and, more importantly, the girl he’s secretly crushing on, Minori Kushieda. But just when he thinks the stars are aligned in his favor, he unwittingly crosses the most feared girl in school, Taiga Aisaku, making her onto his arch enemy. To top it off, Taiga has moved in right next door to Ryuji and happens to be Minori’s best friend! Can this school year possibly get any worse?!",
        "origin_country": [
          "JP"
        ]
      },
      {
        "original_name": "氷菓",
        "id": 65329,
        "name": "Hyouka",
        "popularity": 16.456,
        "vote_count": 24,
        "vote_average": 7.8,
        "first_air_date": "2012-04-23",
        "poster_path": "/jLqFI9DNx5omo3SCUlvtHyhfhYa.jpg",
        "genre_ids": [
          16,
          18,
          9648
        ],
        "original_language": "ja",
        "backdrop_path": "/kCPcV2UEZhWspoirj2NzuWiYQGj.jpg",
        "overview": "Oreki Houtarou is a minimalistic high school boy. One day, he joins the Classic Literature Club at his elder sister's request. There he meets Chitanda Eru, Fukube Satoshi, and Ibara Mayaka. Chitanda is a calm beautiful girl but she turns into an embodiment of curiosity once she says, \"I'm curious.\" Fukube is a smiling boy with a fantastic memory who calls himself a database. Ibara is a short girl and is strict with others and herself. They begin to investigate a case that occurred 45 years ago. Hints of the mystery are buried in an old collection of works of the former members of Classics Club. The collection is titled \"Hyouka.\"",
        "origin_country": [
          "JP"
        ]
      },
      {
        "original_name": "小林さんちのメイドラゴン",
        "genre_ids": [
          16,
          35
        ],
        "name": "Miss Kobayashi's Dragon Maid",
        "popularity": 14.634,
        "origin_country": [
          "JP"
        ],
        "vote_count": 33,
        "first_air_date": "2017-01-12",
        "backdrop_path": "/vKe7ARk2hzw4vJNDhtwCwlzFkPK.jpg",
        "original_language": "ja",
        "id": 69291,
        "vote_average": 7.7,
        "overview": "Kobayashi lives alone in an apartment, until one day, Tooru appeared and they ended up living together. Tooru looks down on humans as inferior and foolish, but having been saved by Kobayashi-san, she does everything she can to repay the debt and help her with various things, although not everything goes according to plan.\n\nA mythical everyday life comedy about a hard working office lady living with a dragon girl.",
        "poster_path": "/o2Sn4Zfnk3XjQ8qeykZayKzHuhr.jpg"
      },
      {
        "original_name": "からかい上手の高木さん",
        "genre_ids": [
          16,
          35
        ],
        "name": "Teasing Master Takagi-san",
        "popularity": 14.42,
        "origin_country": [
          "JP"
        ],
        "vote_count": 15,
        "first_air_date": "2018-01-08",
        "backdrop_path": "/g9ZXjxESzLTmuXdi1Es8NXLSZzm.jpg",
        "original_language": "ja",
        "id": 75865,
        "vote_average": 6.6,
        "overview": "\"If you blush, you lose.\"\n\nLiving by this principle, the middle schooler Nishikata gets constantly made fun of by his seat neighbor Takagi-san. With his pride shattered to pieces, he vows to turn the tables and get back at her someday. And so, he attempts to tease her day after day, only to find himself victim to Takagi-san's ridicule again sooner than later. Will he be able to make Takagi-san blush from embarrassment even once in the end?",
        "poster_path": "/afIaN3BrXuoa4FxRf0821b1NoJN.jpg"
      },
      {
        "original_name": "NHKにようこそ!",
        "id": 42821,
        "name": "Welcome to the N.H.K.",
        "popularity": 13.947,
        "vote_count": 33,
        "vote_average": 8.7,
        "first_air_date": "2006-07-09",
        "poster_path": "/rGMb68OlCBxLO2mJ037kbl82r8Z.jpg",
        "genre_ids": [
          18,
          35,
          16,
          10749
        ],
        "original_language": "ja",
        "backdrop_path": "/sptlNdmCMb90BkL2XGBZZuLbwv0.jpg",
        "overview": "Sato’s life – or what’s left of it – is a paranoid mess of conspiracy theories and social anxieties. He’s terrified of the outside world; his apartment is overflowing with the remnants of cheap take-out food; and his retinas have been permanently scarred by a steady diet of internet porn. But maybe it’s not all his fault. After all, the nefarious N-H-K is out there, and they’re determined to turn society’s fringe-dwellers into a brainwashed lot of jobless, hopeless, futureless recluses.\n\nEnter Misaki – a mysterious girl-next-door type who is Sato’s last chance to beat-down his inner demons and venture out into the light of day. She’s ready to help him overcome his crippling phobias, but Sato would rather cower in his existential foxhole and pretend to work on the demo for his virtual sex game.\n\nHe’s afraid to face the world. She’s strangely desperate to fix a total stranger. Maybe together they can be normal",
        "origin_country": [
          "JP"
        ]
      },
      {
        "original_name": "中二病でも恋がしたい!",
        "genre_ids": [
          16,
          35,
          18
        ],
        "name": "Love, Chunibyo & Other Delusions",
        "popularity": 13.776,
        "origin_country": [
          "JP"
        ],
        "vote_count": 34,
        "first_air_date": "2012-10-04",
        "backdrop_path": "/7xAv4lFfhjlj5KsaVRy3s2bGacW.jpg",
        "original_language": "ja",
        "id": 45501,
        "vote_average": 7.5,
        "overview": "Yuta has a problem. As one of the thousands of Japanese students afflicted with \"chunibyo,\" a state where they're so desperate to stand out that they've literally convinced themselves that they have secret knowledge and hidden powers, Yuta spent most of his middle school years living in a complete fantasy world. But that's not his major problem now, as with a lot of work and effort, he's finally managing to overcome his delusions to the point where thinks he's ready to start high school with all his cards in order. No, his BIG problem is the girl he first encounters climbing on his balcony.\n\nIt seems that his own efforts to rid himself of his chunibyo have attracted the attentions of another sufferer, and she's decided that this makes him her soul mate. And since Rikka's just moved in upstairs, now he's being sucked into her fantasy world! Can a formerly wild and crazy guy handle being the focus of a completely delusional girl? Or will his own chunibyo return with a vengeance?",
        "poster_path": "/6Bo9Vxi2och1kbJfahhzCp9t0NE.jpg"
      },
      {
        "original_name": "ちはやふる",
        "genre_ids": [
          16,
          18
        ],
        "name": "Chihayafuru",
        "popularity": 13.709,
        "origin_country": [
          "JP"
        ],
        "vote_count": 6,
        "first_air_date": "2011-10-05",
        "backdrop_path": "/pE0oeW1gJks9t781xettN4ZmmR.jpg",
        "original_language": "ja",
        "id": 45247,
        "vote_average": 6.8,
        "overview": "6th-year grade-schooler Ayase Chihaya's dream is for her sister to be Japan's top model. However, transfer student Wataya Arata admonishes her that a dream must be about one's own self. Thus, she takes up karuta, a Japanese card game, competitively. Together with Arata and Mashima Taichi, Chihaya's childhood friend, they have great fun playing each other, but separate after graduation.\n\n4 years later, Chihaya returns to town. Although Arata no longer plays the game, she believes that they will eventually reunite as long as she continues karuta. Together with Taichi, she establishes the Mizusawa High-school Karuta Club.",
        "poster_path": "/rpcMtw4kM1HrSgF0rOP4RsIsrxY.jpg"
      },
      {
        "original_name": "フルーツバスケット",
        "id": 85991,
        "name": "Fruits Basket",
        "popularity": 12.91,
        "vote_count": 0,
        "vote_average": 0,
        "first_air_date": "2019-04-06",
        "poster_path": "/gGutWxj8AupmqbINrSyjThmxqAs.jpg",
        "genre_ids": [
          35,
          18,
          16
        ],
        "original_language": "ja",
        "backdrop_path": "/2vIjTPITEoHeetz1jU4UxyHL9tg.jpg",
        "overview": "After a family tragedy turns her life upside down, 16-year-old high schooler Tooru Honda takes matters into her own hands and moves out...into a tent! Unfortunately for her, she pitches her new home on private land belonging to the mysterious Souma clan, and it isn't long before the owners discover her secret. But, as Tooru quickly finds out when the family offers to take her in, the Soumas have a secret of their own--when hugged by the opposite sex, they turn into the animals of the Chinese Zodiac!",
        "origin_country": [
          "JP"
        ]
      },
      {
        "original_name": "ReLIFE",
        "id": 66941,
        "name": "ReLIFE",
        "popularity": 12.37,
        "vote_count": 34,
        "vote_average": 7.5,
        "first_air_date": "2016-07-02",
        "poster_path": "/mpsJ1c61wBSjK0llpJh9UeKnVLq.jpg",
        "genre_ids": [
          16,
          35,
          18
        ],
        "original_language": "ja",
        "backdrop_path": "/qckzxMAi6uMZ8TdhviMkm5wWJqz.jpg",
        "overview": "Arata Kaizaki (27) quit the job he landed after graduation in only three months. His life did not go well after that. Now his parents are threatening to stop sending money, and want him to come back to the country. He has no friend or girlfriend to share his troubles with...as he hits rock bottom a strange man named Ryou Yoake appears. He invites Arata to join a societal rehabilitation program for NEETs called ReLife. This program uses a mysterious drug to make him look younger, and sends him back to high school for a year...",
        "origin_country": [
          "JP"
        ]
      },
      {
        "original_name": "響け！ユーフォニアム",
        "id": 62564,
        "name": "Sound! Euphonium",
        "popularity": 11.668,
        "vote_count": 15,
        "vote_average": 8.4,
        "first_air_date": "2015-04-08",
        "poster_path": "/l0hKrx6PjQRrHiMzK2Fanen2xbL.jpg",
        "genre_ids": [
          16,
          35,
          18
        ],
        "original_language": "ja",
        "backdrop_path": "/q86j2ziR9UhlqhPa7kB53PFdzMm.jpg",
        "overview": "After swearing off music due to an incident at the middle school regional brass band competition, euphonist Kumiko Oumae enters high school hoping for a fresh start. As fate would have it, she ends up being surrounded by people with an interest in the high school brass band. Kumiko finds the motivation she needs to make music once more with the help of her bandmates, some of whom are new like novice tubist Hazuki Katou; veteran contrabassist Sapphire Kawashima; and band vice president and fellow euphonist Asuka Tanaka. Others are old friends, like Kumiko's childhood friend and hornist-turned-trombonist Shuuichi Tsukamoto, and trumpeter and bandmate from middle school, Reina Kousaka.\n\nHowever, in the band itself, chaos reigns supreme. Despite their intention to qualify for the national band competition, as they currently are, just competing in the local festival will be a challenge—unless the new band advisor Noboru Taki does something about it.\n\nFrom the studio that animated Suzumiya Haruhi no Yuuutsu, Kyoto Animation's Hibike! Euphonium is a fresh and musical take on the slice-of-life staple that is the high school student's struggle to deal with their past, find romance, and realize their dreams and aspirations.",
        "origin_country": [
          "JP"
        ]
      },
      {
        "original_name": "魔法使いの嫁",
        "genre_ids": [
          16,
          18,
          10765
        ],
        "name": "The Ancient Magus' Bride",
        "popularity": 11.522,
        "origin_country": [
          "JP"
        ],
        "vote_count": 26,
        "first_air_date": "2017-10-07",
        "backdrop_path": "/tsf3msEsM0uTbtsuwmtSQnje4zJ.jpg",
        "original_language": "ja",
        "id": 73833,
        "vote_average": 7.7,
        "overview": "Chise Hatori, 15 years old. Lost, without hope, and without family, she is bought for money – not by another person, but by a non-human sorcerer named Elias. Though she hesitates, she begins life anew as his apprentice and future wife.",
        "poster_path": "/vUm0WIGGgAnXYOSBeB36FKDpBjI.jpg"
      },
      {
        "original_name": "うさぎドロップ",
        "id": 45213,
        "name": "Usagi Drop",
        "popularity": 11.478,
        "vote_count": 30,
        "vote_average": 8.3,
        "first_air_date": "2011-07-08",
        "poster_path": "/nMeOuxeY1Djly3xIFoam2H5tU0Q.jpg",
        "genre_ids": [
          16,
          35,
          18
        ],
        "original_language": "ja",
        "backdrop_path": "/guDOD8t1BsGFwfNoitr2J3ssQOq.jpg",
        "overview": "By force of circumstances, a 30-year-old single man with a full-time job suddenly starts raising a 6-year-old girl. While running each other ragged, the two of them gradually grow into a \"family\".",
        "origin_country": [
          "JP"
        ]
      },
      {
        "original_name": "徒然チルドレン",
        "id": 72509,
        "name": "Tsuredure Children",
        "popularity": 11.243,
        "vote_count": 18,
        "vote_average": 7.5,
        "first_air_date": "2017-07-04",
        "poster_path": "/5oRHxFJ7OAXGR3xs3ig0dN8JUtw.jpg",
        "genre_ids": [
          16,
          35
        ],
        "original_language": "ja",
        "backdrop_path": "/iGu4xsnRJsc29CUVr484ZT0KvFi.jpg",
        "overview": "A series depicting various scenarios of young love. These stories range from a boy, crippled by his absolute lack of confidence in himself, cannot even accept the fact that the girl of his dreams actually asked him out on a date, to the near-psychotic girl that pours her own blood into her homemade chocolate in order to win his heart.",
        "origin_country": [
          "JP"
        ]
      },
      {
        "original_name": "五等分の花嫁",
        "genre_ids": [
          16,
          35,
          18
        ],
        "name": "The Quintessential Quintuplets",
        "popularity": 11.224,
        "origin_country": [],
        "vote_count": 0,
        "first_air_date": "2019-01-11",
        "backdrop_path": "/dwEkNoGFZJWqiwJrnzVfmtmVhfU.jpg",
        "original_language": "ja",
        "id": 84669,
        "vote_average": 0,
        "overview": "Fuutarou Uesugi is a poor, antisocial ace student who one day meets the rich transfer student Itsuki Nakano. They argue but when Uesugi realizes he is to be her tutor, he tries to get on better terms. While trying to do so he meets four other girls.",
        "poster_path": "/8tCkNF2Fxh0lXlN0f1DjpLb8uVa.jpg"
      },
      {
        "original_name": "だがしかし",
        "id": 65523,
        "name": "Dagashi Kashi",
        "popularity": 10.578,
        "vote_count": 18,
        "vote_average": 5.7,
        "first_air_date": "2016-01-08",
        "poster_path": "/s3DOB532aIrdrJHT3hHiOZfWiBB.jpg",
        "genre_ids": [
          16,
          35
        ],
        "original_language": "ja",
        "backdrop_path": "/6FaNp6rNluJmC4xrWzj7ew1FE7V.jpg",
        "overview": "Shikada Kokonotsu's father owns a rural sweets shop, and his plan is for Kokonotsu to take it over one day. However, Kokonotsu wants to be a manga author instead! One day in summer, the cute but weird girl Shidare Hotaru, from the famous sweets company, comes to pay a visit. Apparently, Kokonotsu's father is famous and she wants him to join her family's company. However, he will only agree if she can convince Kokonotsu to take over the family business!",
        "origin_country": [
          "JP"
        ]
      },
      {
        "original_name": "ガヴリールドロップアウト",
        "id": 69285,
        "name": "Gabriel DropOut",
        "popularity": 10.052,
        "vote_count": 12,
        "vote_average": 7.1,
        "first_air_date": "2017-01-09",
        "poster_path": "/zxX0uXgkaeQNFo4OkboUKAx3lz3.jpg",
        "genre_ids": [
          16,
          35,
          10765
        ],
        "original_language": "ja",
        "backdrop_path": "/zscbGuTQ5DX7UL4Xrl9XxIVtXDN.jpg",
        "overview": "Gabriel White graduated at the top of the class at angel school and attends a human school on earth in pursuit of knowledge, but then gets engrossed in a web game and decides its too much trouble to go anywhere. (from manga)",
        "origin_country": [
          "JP"
        ]
      },
      {
        "original_name": "涼宮ハルヒの憂鬱",
        "genre_ids": [
          16,
          35
        ],
        "name": "The Melancholy of Haruhi Suzumiya",
        "popularity": 9.92,
        "origin_country": [
          "JP"
        ],
        "vote_count": 49,
        "first_air_date": "2006-04-03",
        "backdrop_path": "/a8nLxUtebaJeRKXAwACAzHsFJlA.jpg",
        "original_language": "ja",
        "id": 42511,
        "vote_average": 7.8,
        "overview": "I thought that when I entered high school, my days of believing in aliens, time travelers and ESPers were going to be over. That is, until she introduced herself. Claiming to be interested in only aliens, time travelers, and ESPers, Haruhi Suzumiya was the strangest girl I've met in a long time... Before I knew what's going on, I've been dragged into her weird club, and it looks like I'm not the only one who has been drafted into this \"SOS Brigade\" of hers, because there are three other students who don't seem to be so ordinary themselves.",
        "poster_path": "/5rbehM5zkF8xlLce4F9kJZWhqmU.jpg"
      },
      {
        "original_name": "ブレンド・S",
        "id": 74081,
        "name": "Blend S",
        "popularity": 9.74,
        "vote_count": 8,
        "vote_average": 6.6,
        "first_air_date": "2017-10-07",
        "poster_path": "/mMsibXak1hJ9tsRYCF7tDYN319w.jpg",
        "genre_ids": [
          16,
          35,
          18
        ],
        "original_language": "ja",
        "backdrop_path": "/4TPUkOyxbNd3LNQU2iMKwUilYty.jpg",
        "overview": "High school girl Maika Sakuranomiya has trouble finding a part-time job because of how scary she looks when smiling. However, she is scouted one day by an Italian man who is also the manager of Stile, a café where its waitresses are given unique traits such as tsundere and younger sister. Maika is given a sadist trait because of her looks and has to adopt a dominant and cruel persona when servicing customers, particularly masochist ones.",
        "origin_country": []
      }
    ]
  }